…
# Excel Files
library(readxl)

# 2.0 Importing Files ----
# A good convention is to use the file name and suffix it with tbl for the data structure tibble
bikes_tbl      <- read_excel(path = "C:/data-science/00_data/01_bike_sales/01_raw_data/bikes.xlsx")
orderlines_tbl <- read_excel("C:/data-science/00_data/01_bike_sales/01_raw_data/orderlines.xlsx")

# Not necessary for this analysis, but for the sake of completeness
bikeshops_tbl  <- read_excel("C:/data-science/00_data/01_bike_sales/01_raw_data/bikeshops.xlsx")

# Method 1: Print it to the console
orderlines_tbl
# A tibble: 15,644 x 7
##    ...1  order.id order.line order.date          customer.id product.id quantity
##    <chr>    <dbl>      <dbl> <dttm>                    <dbl>      <dbl>    <dbl>
##  1 1            1          1 2015-01-07 00:00:00           2       2681        1
##  2 2            1          2 2015-01-07 00:00:00           2       2411        1
##  3 3            2          1 2015-01-10 00:00:00          10       2629        1
##  4 4            2          2 2015-01-10 00:00:00          10       2137        1
##  5 5            3          1 2015-01-10 00:00:00           6       2367        1
##  6 6            3          2 2015-01-10 00:00:00           6       1973        1
##  7 7            3          3 2015-01-10 00:00:00           6       2422        1
##  8 8            3          4 2015-01-10 00:00:00           6       2655        1
##  9 9            3          5 2015-01-10 00:00:00           6       2247        1
## 10 10           4          1 2015-01-11 00:00:00          22       2408        1
## # … with 15,634 more rows
…
